﻿Kl.   A    B
----- ---- ----
10:00 92,0 92,2
10:01 92,1 92,4
10:02 92,3 92,5
10:03 92,6 92,9
10:04 92,9 93,2
10:05 92,1 92,4
10:06 91,8 92,2
10:07 91,0 91,2
10:08 89,4 90,7
10:09 85,9 86,3
10:10 84,0 84,4
10:11 81,9 82,2
10:12 80,3 80,7
10:13 79,8 80,1
10:14 79,5 79,9
10:15 77,0 77,8
10:16 77,5 77,8
10:17 79,8 78,8
10:18 80,2 80,6
10:19 81,1 81,2
